<?xml version="1.0" encoding="UTF-8" standalone="no"?>
<svg
   xmlns:dc="http://purl.org/dc/elements/1.1/"
   xmlns:cc="http://creativecommons.org/ns#"
   xmlns:rdf="http://www.w3.org/1999/02/22-rdf-syntax-ns#"
   xmlns:svg="http://www.w3.org/2000/svg"
   xmlns="http://www.w3.org/2000/svg"
   id="svg6"
   version="1.1"
   viewBox="0 0 48 48"
   height="48"
   width="48">
  <metadata
     id="metadata12">
    <rdf:RDF>
      <cc:Work
         rdf:about="">
        <dc:format>image/svg+xml</dc:format>
        <dc:type
           rdf:resource="http://purl.org/dc/dcmitype/StillImage" />
        <dc:title></dc:title>
      </cc:Work>
    </rdf:RDF>
  </metadata>
  <defs
     id="defs10" />
  <circle
     transform="rotate(135)"
     id="circle2"
     r="4.3600001"
     cy="-26.668869"
     cx="-7.2822571" />
  <path
     id="path4"
     d="M 46.005163,29.540524 42.002938,25.5383 c -9.941921,9.941921 -26.063956,9.941921 -36.0058769,0 l -4.0022243,4.002224 c 12.1622362,12.148095 31.8622312,12.148095 44.0103262,0 z m -7.997378,-7.997378 -4.002224,-4.002224 c -5.522504,5.522504 -14.481547,5.515433 -19.99698,0 l -4.002224,4.002224 c 7.728677,7.728678 20.272751,7.728678 28.001428,0 z" />
</svg>
